^D:\OneDrive - Dr. Westernacher & Partner Unternehmensberatung AG\Desktop\DHT Solution\Sensors.Dht\Sensors.Dht.vcxproj
D:\OneDrive - Dr. Westernacher & Partner Unternehmensberatung AG\Desktop\DHT Solution\Sensors.Dht\ARM\Debug\priconfig.xml
D:\OneDrive - Dr. Westernacher & Partner Unternehmensberatung AG\Desktop\DHT Solution\Sensors.Dht\ARM\Debug\filtered.layout.resfiles
D:\OneDrive - Dr. Westernacher & Partner Unternehmensberatung AG\Desktop\DHT Solution\Sensors.Dht\ARM\Debug\resources.resfiles
D:\OneDrive - Dr. Westernacher & Partner Unternehmensberatung AG\Desktop\DHT Solution\Sensors.Dht\ARM\Debug\pri.resfiles
D:\OneDrive - Dr. Westernacher & Partner Unternehmensberatung AG\Desktop\DHT Solution\Sensors.Dht\ARM\Debug\embed.resfiles
